IDSGAN start training
****************************************************************************************************
---Epoch 0---
G_Loss = -430.3786276652245 	 D_Loss = -260.00007814951243
****************************************************************************************************
---Epoch 1---
G_Loss = -575.5422992706299 	 D_Loss = -335.7108457565308
****************************************************************************************************
---Epoch 2---
G_Loss = -571.8277478218079 	 D_Loss = -335.6790652751923
****************************************************************************************************
---Epoch 3---
G_Loss = -571.5311169624329 	 D_Loss = -335.71920146942136
****************************************************************************************************
---Epoch 4---
G_Loss = -572.6173639297485 	 D_Loss = -335.7158482551575
****************************************************************************************************
---Epoch 5---
G_Loss = -572.3857173919678 	 D_Loss = -335.78211278915404
****************************************************************************************************
---Epoch 6---
G_Loss = -573.4590916633606 	 D_Loss = -335.7627737522125
****************************************************************************************************
---Epoch 7---
G_Loss = -576.8330178260803 	 D_Loss = -335.8129157543182
****************************************************************************************************
---Epoch 8---
G_Loss = -578.1532526016235 	 D_Loss = -335.7838861942291
****************************************************************************************************
---Epoch 9---
G_Loss = -576.4316983222961 	 D_Loss = -335.6924889087677
****************************************************************************************************
---Epoch 10---
G_Loss = -572.7257676124573 	 D_Loss = -335.7479093551636
****************************************************************************************************
---Epoch 11---
G_Loss = -572.7607307434082 	 D_Loss = -335.74331841468813
****************************************************************************************************
---Epoch 12---
G_Loss = -573.1534876823425 	 D_Loss = -335.73193697929383
****************************************************************************************************
---Epoch 13---
G_Loss = -572.0174531936646 	 D_Loss = -335.7880229949951
****************************************************************************************************
---Epoch 14---
G_Loss = -571.8877019882202 	 D_Loss = -335.7295278549194
****************************************************************************************************
---Epoch 15---
G_Loss = -571.1211881637573 	 D_Loss = -335.82886691093444
****************************************************************************************************
---Epoch 16---
G_Loss = -571.7695307731628 	 D_Loss = -335.714026260376
****************************************************************************************************
---Epoch 17---
G_Loss = -572.5667610168457 	 D_Loss = -335.62179551124575
****************************************************************************************************
---Epoch 18---
G_Loss = -572.7990956306458 	 D_Loss = -335.788384103775
****************************************************************************************************
---Epoch 19---
G_Loss = -571.354775428772 	 D_Loss = -335.7591330528259
****************************************************************************************************
---Epoch 20---
G_Loss = -570.4582390785217 	 D_Loss = -335.80300784111023
****************************************************************************************************
---Epoch 21---
G_Loss = -570.5737547874451 	 D_Loss = -335.8215500831604
****************************************************************************************************
---Epoch 22---
G_Loss = -570.9875864982605 	 D_Loss = -335.8159125328064
****************************************************************************************************
---Epoch 23---
G_Loss = -570.8578443527222 	 D_Loss = -335.7466154575348
****************************************************************************************************
---Epoch 24---
G_Loss = -571.0930914878845 	 D_Loss = -335.7174860477447
****************************************************************************************************
---Epoch 25---
G_Loss = -571.9487648010254 	 D_Loss = -335.68301167488096
****************************************************************************************************
---Epoch 26---
G_Loss = -571.4552202224731 	 D_Loss = -335.72663259506226
****************************************************************************************************
---Epoch 27---
G_Loss = -574.1344900131226 	 D_Loss = -335.6340292453766
****************************************************************************************************
---Epoch 28---
G_Loss = -571.9011888504028 	 D_Loss = -335.7252023220062
****************************************************************************************************
---Epoch 29---
G_Loss = -572.3213858604431 	 D_Loss = -335.75978116989137
****************************************************************************************************
---Epoch 30---
G_Loss = -572.4310946464539 	 D_Loss = -335.74994444847107
****************************************************************************************************
---Epoch 31---
G_Loss = -573.7923331260681 	 D_Loss = -335.8319062232971
****************************************************************************************************
---Epoch 32---
G_Loss = -573.935718536377 	 D_Loss = -335.70713195800784
****************************************************************************************************
---Epoch 33---
G_Loss = -571.8089480400085 	 D_Loss = -335.77804589271545
****************************************************************************************************
---Epoch 34---
G_Loss = -573.1156921386719 	 D_Loss = -335.6425192832947
****************************************************************************************************
---Epoch 35---
G_Loss = -574.2218155860901 	 D_Loss = -335.6842240333557
****************************************************************************************************
---Epoch 36---
G_Loss = -573.6531853675842 	 D_Loss = -335.6721137046814
****************************************************************************************************
---Epoch 37---
G_Loss = -571.2920680046082 	 D_Loss = -335.7365800857544
****************************************************************************************************
---Epoch 38---
G_Loss = -570.909441947937 	 D_Loss = -335.7326326370239
****************************************************************************************************
---Epoch 39---
G_Loss = -571.0521578788757 	 D_Loss = -335.74251255989077
****************************************************************************************************
---Epoch 40---
G_Loss = -573.2677397727966 	 D_Loss = -335.71431069374086
****************************************************************************************************
---Epoch 41---
G_Loss = -573.7183122634888 	 D_Loss = -335.643039560318
****************************************************************************************************
---Epoch 42---
G_Loss = -571.022762298584 	 D_Loss = -335.76840963363645
****************************************************************************************************
---Epoch 43---
G_Loss = -571.9326415061951 	 D_Loss = -335.73970971107485
****************************************************************************************************
---Epoch 44---
G_Loss = -572.4050459861755 	 D_Loss = -335.7041774272919
****************************************************************************************************
---Epoch 45---
G_Loss = -572.6704802513123 	 D_Loss = -335.669343996048
****************************************************************************************************
---Epoch 46---
G_Loss = -572.7265176773071 	 D_Loss = -335.73495507240295
****************************************************************************************************
---Epoch 47---
G_Loss = -571.4495029449463 	 D_Loss = -335.8105112075806
****************************************************************************************************
---Epoch 48---
G_Loss = -571.0268068313599 	 D_Loss = -335.74213728904726
****************************************************************************************************
---Epoch 49---
G_Loss = -572.0377883911133 	 D_Loss = -335.67192249298097
****************************************************************************************************
---Epoch 50---
G_Loss = -571.7978458404541 	 D_Loss = -335.616094827652
****************************************************************************************************
---Epoch 51---
G_Loss = -571.4937057495117 	 D_Loss = -335.69243178367617
****************************************************************************************************
---Epoch 52---
G_Loss = -571.0797791481018 	 D_Loss = -335.74649648666383
****************************************************************************************************
---Epoch 53---
G_Loss = -571.9197635650635 	 D_Loss = -335.68181748390197
****************************************************************************************************
---Epoch 54---
G_Loss = -570.5613875389099 	 D_Loss = -335.67970886230466
****************************************************************************************************
---Epoch 55---
G_Loss = -571.6840839385986 	 D_Loss = -335.7527470111847
****************************************************************************************************
---Epoch 56---
G_Loss = -572.8080892562866 	 D_Loss = -335.69634704589845
****************************************************************************************************
---Epoch 57---
G_Loss = -571.5195279121399 	 D_Loss = -335.7107256889343
****************************************************************************************************
---Epoch 58---
G_Loss = -572.4962921142578 	 D_Loss = -335.7921369075775
****************************************************************************************************
---Epoch 59---
G_Loss = -571.8191266059875 	 D_Loss = -335.7916786670685
****************************************************************************************************
---Epoch 60---
G_Loss = -572.632227897644 	 D_Loss = -335.74507942199705
****************************************************************************************************
---Epoch 61---
G_Loss = -572.8255195617676 	 D_Loss = -335.7097885131836
****************************************************************************************************
---Epoch 62---
G_Loss = -572.0443415641785 	 D_Loss = -335.72224912643435
****************************************************************************************************
---Epoch 63---
G_Loss = -571.7201271057129 	 D_Loss = -335.74993071556094
****************************************************************************************************
---Epoch 64---
G_Loss = -574.145893573761 	 D_Loss = -335.7715974330902
****************************************************************************************************
---Epoch 65---
G_Loss = -574.9079117774963 	 D_Loss = -335.7074162483215
****************************************************************************************************
---Epoch 66---
G_Loss = -574.2458686828613 	 D_Loss = -335.65942883491516
****************************************************************************************************
---Epoch 67---
G_Loss = -574.5434331893921 	 D_Loss = -335.8110323905945
****************************************************************************************************
---Epoch 68---
G_Loss = -572.2576689720154 	 D_Loss = -335.7249047756195
****************************************************************************************************
---Epoch 69---
G_Loss = -572.0435447692871 	 D_Loss = -335.73679451942445
****************************************************************************************************
---Epoch 70---
G_Loss = -571.7225184440613 	 D_Loss = -335.7026962280273
****************************************************************************************************
---Epoch 71---
G_Loss = -574.4364671707153 	 D_Loss = -335.8414864063263
****************************************************************************************************
---Epoch 72---
G_Loss = -574.2256097793579 	 D_Loss = -335.72950782775877
****************************************************************************************************
---Epoch 73---
G_Loss = -572.5523724555969 	 D_Loss = -335.68298587799075
****************************************************************************************************
---Epoch 74---
G_Loss = -572.9093890190125 	 D_Loss = -335.75741987228395
****************************************************************************************************
---Epoch 75---
G_Loss = -571.4942502975464 	 D_Loss = -335.77803587913513
****************************************************************************************************
---Epoch 76---
G_Loss = -571.8206562995911 	 D_Loss = -335.8034255027771
****************************************************************************************************
---Epoch 77---
G_Loss = -571.6567463874817 	 D_Loss = -335.84444160461425
****************************************************************************************************
---Epoch 78---
G_Loss = -571.7408137321472 	 D_Loss = -335.7465747356415
****************************************************************************************************
---Epoch 79---
G_Loss = -572.7620458602905 	 D_Loss = -335.6876671791077
****************************************************************************************************
---Epoch 80---
G_Loss = -571.2050848007202 	 D_Loss = -335.6690325260162
****************************************************************************************************
---Epoch 81---
G_Loss = -573.7379956245422 	 D_Loss = -335.7346778392792
****************************************************************************************************
---Epoch 82---
G_Loss = -573.0005717277527 	 D_Loss = -335.7421973705292
****************************************************************************************************
---Epoch 83---
G_Loss = -572.2653088569641 	 D_Loss = -335.77320127487184
****************************************************************************************************
---Epoch 84---
G_Loss = -572.6860957145691 	 D_Loss = -335.77465481758117
****************************************************************************************************
---Epoch 85---
G_Loss = -572.8800029754639 	 D_Loss = -335.7619647502899
****************************************************************************************************
---Epoch 86---
G_Loss = -571.3458504676819 	 D_Loss = -335.74830226898194
****************************************************************************************************
---Epoch 87---
G_Loss = -570.8594436645508 	 D_Loss = -335.7917989730835
****************************************************************************************************
---Epoch 88---
G_Loss = -572.1119608879089 	 D_Loss = -335.75981702804563
****************************************************************************************************
---Epoch 89---
G_Loss = -573.2866177558899 	 D_Loss = -335.79914569854736
****************************************************************************************************
---Epoch 90---
G_Loss = -571.3217186927795 	 D_Loss = -335.6993766784668
****************************************************************************************************
---Epoch 91---
G_Loss = -571.0567402839661 	 D_Loss = -335.7441628932953
****************************************************************************************************
---Epoch 92---
G_Loss = -572.274763584137 	 D_Loss = -335.632008934021
****************************************************************************************************
---Epoch 93---
G_Loss = -571.6225442886353 	 D_Loss = -335.7333434581757
****************************************************************************************************
---Epoch 94---
G_Loss = -572.5001435279846 	 D_Loss = -335.6700301170349
****************************************************************************************************
---Epoch 95---
G_Loss = -572.0911955833435 	 D_Loss = -335.7783523082733
****************************************************************************************************
---Epoch 96---
G_Loss = -571.970712184906 	 D_Loss = -335.67284812927244
****************************************************************************************************
---Epoch 97---
G_Loss = -572.1147885322571 	 D_Loss = -335.7221269607544
****************************************************************************************************
---Epoch 98---
G_Loss = -571.3444094657898 	 D_Loss = -335.69827823638917
****************************************************************************************************
---Epoch 99---
G_Loss = -570.9281792640686 	 D_Loss = -335.69386262893676
IDSGAN finish training

